## Interface: 11200
## Title: Carbonite Items
## Version: 1.00
## Author: Carbon Based Creations, LLC
## Notes: Copyright 2010 Carbon Based Creations, LLC.  Item data.
## DefaultState: Enabled
## LoadOnDemand: 1

CarboniteItems.lua
